{
    "name": "https://qa-finops.aquilaclouds.com/api/finops/reservation/usage/timeseries" ,
    "data":[
        "{\"filters\":{},\"drillParams\":{\"resourceId\":\"arn:aws:ec2:ap-south-1:705339930841:reserved-instances/b86bd783-7e80-4cc1-b815-a76b06b7ec87\"},\"userId\":368543,\"envList\":[391973,389588,385172,371777,133780,113880,388572,353193,297289,2107311,5299327],\"serviceKey\":\"finops\"}",
        "{\"filters\":{},\"drillParams\":{\"resourceId\":\"arn:aws:ec2:ap-south-1:574440357411:reserved-instances/f923c64f-a3f6-40c0-872c-50d2a026a130\"},\"userId\":368543,\"envList\":[391973,389588,385172,371777,133780,113880,388572,353193,297289,2107311,5299327],\"serviceKey\":\"finops\"}",
        "{\"filters\":{},\"drillParams\":{\"resourceId\":\"arn:aws:ec2:ap-south-1:705339930841:reserved-instances/795c8a79-418d-4280-a51b-8c9bcc902756\"},\"userId\":368543,\"envList\":[391973,389588,385172,371777,133780,113880,388572,353193,297289,2107311,5299327],\"serviceKey\":\"finops\"}",
        "{\"filters\":{},\"drillParams\":{\"resourceId\":\"arn:aws:ec2:ap-south-1:705339930841:reserved-instances/8627005b-9c13-4a98-aa7e-f1b5c3c0f5ad\"},\"userId\":368543,\"envList\":[391973,389588,385172,371777,133780,113880,388572,353193,297289,2107311,5299327],\"serviceKey\":\"finops\"}",
        "{\"filters\":{},\"drillParams\":{\"resourceId\":\"arn:aws:ec2:ap-south-1:705339930841:reserved-instances/a31a38d4-2cf0-4eb0-b75c-d834c75839df\"},\"userId\":368543,\"envList\":[391973,389588,385172,371777,133780,113880,388572,353193,297289,2107311,5299327],\"serviceKey\":\"finops\"}",
        "{\"filters\":{},\"drillParams\":{\"resourceId\":\"arn:aws:ec2:ap-south-1:705339930841:reserved-instances/b26c09e2-0232-4454-a9e4-36508877956d\"},\"userId\":368543,\"envList\":[391973,389588,385172,371777,133780,113880,388572,353193,297289,2107311,5299327],\"serviceKey\":\"finops\"}",
        "{\"filters\":{},\"drillParams\":{\"resourceId\":\"arn:aws:ec2:ap-south-1:705339930841:reserved-instances/e6435dc9-bdbe-4143-ac26-c13c4fdd52ba\"},\"userId\":368543,\"envList\":[391973,389588,385172,371777,133780,113880,388572,353193,297289,2107311,5299327],\"serviceKey\":\"finops\"}",
        "{\"filters\":{},\"drillParams\":{\"resourceId\":\"arn:aws:ec2:ap-south-1:705339930841:reserved-instances/f130f09e-3f64-4120-9170-ca3d596ae687\"},\"userId\":368543,\"envList\":[391973,389588,385172,371777,133780,113880,388572,353193,297289,2107311,5299327],\"serviceKey\":\"finops\"}",
        "{\"filters\":{},\"drillParams\":{\"resourceId\":\"arn:aws:ec2:ap-south-1:705339930841:reserved-instances/f6b33fc0-732d-41e4-84c5-994e9b3c9ce2\"},\"userId\":368543,\"envList\":[391973,389588,385172,371777,133780,113880,388572,353193,297289,2107311,5299327],\"serviceKey\":\"finops\"}",
        "{\"filters\":{},\"drillParams\":{\"resourceId\":\"arn:aws:rds:ap-south-1:574440357411:ri:ri-2021-07-15-08-13-36-252\"},\"userId\":368543,\"envList\":[391973,389588,385172,371777,133780,113880,388572,353193,297289,2107311,5299327],\"serviceKey\":\"finops\"}",
        "{\"filters\":{},\"drillParams\":{\"resourceId\":\"arn:aws:rds:ap-south-1:705339930841:ri:ri-2021-02-17-11-15-49-512\"},\"userId\":368543,\"envList\":[391973,389588,385172,371777,133780,113880,388572,353193,297289,2107311,5299327],\"serviceKey\":\"finops\"}",
        "{\"filters\":{},\"drillParams\":{\"resourceId\":\"arn:aws:rds:ap-south-1:892887872352:ri:bpcl-db\"},\"userId\":368543,\"envList\":[391973,389588,385172,371777,133780,113880,388572,353193,297289,2107311,5299327],\"serviceKey\":\"finops\"}",
        "{\"filters\":{},\"drillParams\":{\"resourceId\":\"arn:aws:rds:ap-south-1:892887872352:ri:ri-2020-08-24-21-40-38-476\"},\"userId\":368543,\"envList\":[391973,389588,385172,371777,133780,113880,388572,353193,297289,2107311,5299327],\"serviceKey\":\"finops\"}",
        "{\"filters\":{},\"drillParams\":{\"resourceId\":\"arn:aws:rds:ap-south-1:977222804821:ri:mlc-db-replica\"},\"userId\":368543,\"envList\":[391973,389588,385172,371777,133780,113880,388572,353193,297289,2107311,5299327],\"serviceKey\":\"finops\"}",
        "{\"filters\":{},\"drillParams\":{\"resourceId\":\"arn:aws:rds:ap-south-1:977222804821:ri:mlc-rds-ri-main\"},\"userId\":368543,\"envList\":[391973,389588,385172,371777,133780,113880,388572,353193,297289,2107311,5299327],\"serviceKey\":\"finops\"}",
        "{\"filters\":{},\"drillParams\":{\"resourceId\":\"arn:aws:rds:ap-southeast-1:574440357411:ri:ri-2020-12-26-15-57-05-561\"},\"userId\":368543,\"envList\":[391973,389588,385172,371777,133780,113880,388572,353193,297289,2107311,5299327],\"serviceKey\":\"finops\"}",
        "{\"filters\":{},\"drillParams\":{\"resourceId\":\"arn:aws:rds:ap-southeast-1:574440357411:ri:ri-2021-01-01-11-04-53-926\"},\"userId\":368543,\"envList\":[391973,389588,385172,371777,133780,113880,388572,353193,297289,2107311,5299327],\"serviceKey\":\"finops\"}",
        "{\"filters\":{},\"drillParams\":{\"resourceId\":\"arn:aws:rds:ap-southeast-1:574440357411:ri:ri-2021-07-05-07-13-45-345\"},\"userId\":368543,\"envList\":[391973,389588,385172,371777,133780,113880,388572,353193,297289,2107311,5299327],\"serviceKey\":\"finops\"}",
        "{\"filters\":{},\"drillParams\":{\"resourceId\":\"arn:aws:rds:ap-southeast-1:574440357411:ri:ri-2021-07-17-08-28-57-394\"},\"userId\":368543,\"envList\":[391973,389588,385172,371777,133780,113880,388572,353193,297289,2107311,5299327],\"serviceKey\":\"finops\"}"
    ]
}